<svg width="8" height="13" viewBox="0 0 8 13" fill="none" xmlns="http://www.w3.org/2000/svg">
<path d="M6.39648 1.21978L2.04982 5.56645C1.53648 6.07979 1.53648 6.91978 2.04982 7.43312L6.39648 11.7798" stroke="#324F7B" stroke-width="1.5" stroke-miterlimit="10" stroke-linecap="round" stroke-linejoin="round"/>
</svg>
