<svg width="24" height="23" viewBox="0 0 24 23" fill="none" xmlns="http://www.w3.org/2000/svg">
<path d="M23 11.5024C23 13.5649 22.4225 15.5174 21.405 17.1674C20.8275 18.1574 20.085 19.0374 19.2325 19.7524C17.3075 21.4849 14.7775 22.5024 12 22.5024C7.985 22.5024 4.49246 20.3574 2.59496 17.1674C1.57746 15.5174 1 13.5649 1 11.5024C1 8.03744 2.595 4.92995 5.125 2.92245C7.0225 1.40995 9.415 0.502441 12 0.502441C18.0775 0.502441 23 5.42494 23 11.5024Z" stroke="#324F7B" stroke-opacity="0.8" stroke-miterlimit="10" stroke-linecap="round" stroke-linejoin="round"/>
</svg>
