<svg width="14" height="16" viewBox="0 0 14 16" fill="none" xmlns="http://www.w3.org/2000/svg">
<path d="M7.0009 8.95297C8.14965 8.95297 9.0809 8.02172 9.0809 6.87297C9.0809 5.72422 8.14965 4.79297 7.0009 4.79297C5.85215 4.79297 4.9209 5.72422 4.9209 6.87297C4.9209 8.02172 5.85215 8.95297 7.0009 8.95297Z" stroke="#324F7B"/>
<path d="M1.41281 5.66016C2.72615 -0.113169 11.2795 -0.106502 12.5861 5.66683C13.3528 9.0535 11.2461 11.9202 9.39948 13.6935C8.05948 14.9868 5.93948 14.9868 4.59281 13.6935C2.75281 11.9202 0.646147 9.04683 1.41281 5.66016Z" stroke="#324F7B"/>
</svg>
