<svg width="30" height="24" viewBox="0 0 30 24" fill="none" xmlns="http://www.w3.org/2000/svg">
<g clip-path="url(#clip0_1042_9631)">
<path d="M2.93371 14.5951C2.93371 8.1549 8.1549 2.93371 14.5951 2.93371C21.0354 2.93371 26.2566 8.1549 26.2566 14.5951C26.2566 18.4557 24.3785 21.8773 21.4885 24H25.7546C27.8979 21.4602 29.1916 18.1802 29.1916 14.5951C29.1916 6.53422 22.6574 0 14.5951 0C6.53293 0 0 6.53422 0 14.5951C0 18.1789 1.29371 21.4589 3.43703 24H7.70178C4.81184 21.8786 2.93371 18.457 2.93371 14.5951Z" fill="#324F7B"/>
<path d="M7.39453 11.1155L11.5254 20.4676C11.5254 20.4676 14.2261 19.5974 16.7337 18.0269C20.0523 15.9506 20.9444 14.1329 20.9444 14.1329C20.9444 14.1329 19.1821 12.2818 17.7867 10.8632C16.7826 9.84243 14.212 7.66693 14.212 7.66693L10.3321 5.62402L7.39453 11.1168V11.1155Z" fill="#324F7B"/>
<path d="M8.33203 22.5814L11.5219 21.3701L20.9937 22.3484L19.3305 23.9936L9.85231 24L8.33203 22.5814Z" fill="#324F7B"/>
</g>
<defs>
<clipPath id="clip0_1042_9631">
<rect width="29.1916" height="24" fill="white"/>
</clipPath>
</defs>
</svg>
