<svg width="100%" height="100%" viewBox="0 0 104 20" fill="#324F7B" xmlns="http://www.w3.org/2000/svg">
<path d="M4.4432 15.235C3.25605 14.5897 2.32386 13.7053 1.64662 12.5659C0.969389 11.4266 0.634766 10.1518 0.634766 8.74156C0.634766 7.33132 0.969389 6.05653 1.64662 4.92516C2.32386 3.78581 3.25605 2.89345 4.4432 2.25606C5.63035 1.6107 6.96091 1.29199 8.44285 1.29199C9.9248 1.29199 11.2554 1.6107 12.4425 2.25606C13.6297 2.89345 14.5619 3.7858 15.2391 4.91718C15.9163 6.04856 16.2589 7.32335 16.2589 8.74952C16.2589 10.1757 15.9163 11.4505 15.2391 12.5819C14.5619 13.7132 13.6297 14.5976 12.4425 15.243C11.2554 15.8804 9.9248 16.207 8.44285 16.207C6.96091 16.207 5.63832 15.8884 4.4432 15.243V15.235ZM11.0482 13.1874C11.8211 12.7492 12.4266 12.1437 12.8728 11.3628C13.311 10.582 13.534 9.70562 13.534 8.74156C13.534 7.7775 13.311 6.90108 12.8728 6.12027C12.4266 5.33946 11.8211 4.73393 11.0482 4.29572C10.2754 3.85751 9.40692 3.6424 8.43489 3.6424C7.46286 3.6424 6.60238 3.85751 5.82157 4.29572C5.04873 4.72596 4.4432 5.33946 4.00499 6.12027C3.56678 6.90108 3.34369 7.76953 3.34369 8.74156C3.34369 9.71359 3.56678 10.582 4.00499 11.3628C4.4432 12.1437 5.05669 12.7492 5.82157 13.1874C6.59441 13.6176 7.46286 13.8407 8.43489 13.8407C9.40692 13.8407 10.2754 13.6256 11.0482 13.1874Z" />
<path d="M27.7477 5.50705C28.6002 5.97713 29.2615 6.63842 29.7475 7.49093C30.2335 8.35142 30.4725 9.33141 30.4725 10.4548C30.4725 11.5782 30.2335 12.5582 29.7475 13.4267C29.2615 14.2951 28.6002 14.9564 27.7477 15.4265C26.9031 15.8966 25.939 16.1277 24.8634 16.1277C23.3735 16.1277 22.1944 15.6337 21.3179 14.6377V19.9998H18.7285V4.92543H21.1905V6.3755C21.6207 5.84964 22.1466 5.45924 22.776 5.19632C23.4054 4.93339 24.0986 4.80591 24.8555 4.80591C25.9311 4.80591 26.8951 5.03697 27.7397 5.50705H27.7477ZM26.919 12.9646C27.5325 12.3272 27.8433 11.4906 27.8433 10.4628C27.8433 9.435 27.5405 8.59044 26.919 7.95305C26.3056 7.31565 25.5247 6.99696 24.5687 6.99696C23.9472 6.99696 23.3895 7.14037 22.8955 7.41923C22.4015 7.70606 22.0031 8.10443 21.7163 8.63028C21.4295 9.15613 21.2861 9.76166 21.2861 10.4548C21.2861 11.148 21.4295 11.7535 21.7163 12.2794C22.0111 12.8052 22.4015 13.2036 22.8955 13.4904C23.3895 13.7773 23.9552 13.9127 24.5687 13.9127C25.5247 13.9127 26.3056 13.594 26.919 12.9566V12.9646Z" />
<path d="M39.4526 15.385C39.1499 15.632 38.7834 15.8232 38.3452 15.9428C37.907 16.0702 37.4528 16.126 36.9668 16.126C35.7558 16.126 34.8156 15.8073 34.1463 15.1699C33.485 14.5405 33.1504 13.6083 33.1504 12.3972V2.47778H35.7398V5.00346H38.7037V7.075H35.7398V12.3335C35.7398 12.8753 35.8673 13.2816 36.1382 13.5685C36.4011 13.8553 36.7756 13.9907 37.2775 13.9907C37.8592 13.9907 38.3372 13.8394 38.7276 13.5366L39.4526 15.3771V15.385Z" />
<path d="M41.5883 2.66112C41.2775 2.36633 41.1182 1.99186 41.1182 1.55365C41.1182 1.11544 41.2775 0.74097 41.5883 0.446175C41.907 0.151379 42.3053 0 42.7754 0C43.2455 0 43.6359 0.143413 43.9546 0.422274C44.2733 0.709101 44.4326 1.05967 44.4326 1.48991C44.4326 1.94405 44.2733 2.32649 43.9705 2.63722C43.6598 2.94795 43.2614 3.09933 42.7754 3.09933C42.2894 3.09933 41.907 2.94796 41.5883 2.65316V2.66112ZM41.4687 4.92389H44.0582V15.9827H41.4687V4.92389Z" />
<path d="M48.5824 15.721C47.5386 15.4023 46.718 14.9801 46.1045 14.4622L47.0367 12.3667C47.6263 12.8368 48.3593 13.2193 49.2198 13.5141C50.0802 13.8168 50.9487 13.9602 51.8172 13.9602C52.8928 13.9602 53.6975 13.7849 54.2313 13.4423C54.7651 13.0997 55.028 12.6376 55.028 12.0719C55.028 11.6576 54.8846 11.315 54.5819 11.0441C54.2871 10.7733 53.9126 10.5661 53.4505 10.4147C52.9963 10.2633 52.3749 10.0881 51.5861 9.89683C50.4786 9.63391 49.5863 9.37099 48.9011 9.10807C48.2159 8.84514 47.6342 8.43879 47.1403 7.88107C46.6463 7.32335 46.4073 6.56645 46.4073 5.61832C46.4073 4.81361 46.6224 4.08857 47.0606 3.43524C47.4908 2.78191 48.1521 2.25606 49.0286 1.87362C49.905 1.48322 50.9806 1.29199 52.2474 1.29199C53.1318 1.29199 54.0002 1.40354 54.8528 1.61866C55.7132 1.84175 56.4462 2.16044 57.0677 2.57475L56.2152 4.67019C55.5778 4.29572 54.9165 4.01686 54.2233 3.81767C53.5302 3.62645 52.8609 3.53085 52.2155 3.53085C51.1559 3.53085 50.3591 3.70614 49.8412 4.06467C49.3233 4.42321 49.0684 4.90124 49.0684 5.4988C49.0684 5.91311 49.2198 6.24775 49.5146 6.51067C49.8094 6.7736 50.1838 6.98075 50.6459 7.13213C51.1001 7.28351 51.7215 7.4588 52.5103 7.65002C53.5859 7.89701 54.4703 8.15994 55.1635 8.42286C55.8487 8.69376 56.4462 9.10009 56.9322 9.65781C57.4183 10.2076 57.6653 10.9565 57.6653 11.8967C57.6653 12.7014 57.4501 13.4264 57.0119 14.0718C56.5737 14.7251 55.9204 15.243 55.036 15.6254C54.1516 16.0158 53.076 16.207 51.8092 16.207C50.6937 16.207 49.6102 16.0477 48.5664 15.729L48.5824 15.721Z" />
<path d="M69.624 12.629H62.3737L60.9475 15.9833H58.1748L64.7001 1.49048H67.3533L73.8946 15.9833H71.0821L69.632 12.629H69.624ZM68.7317 10.5176L65.9988 4.18348L63.2819 10.5176H68.7317Z" />
<path d="M75.6084 1.49048H78.3014V15.9833H75.6084V1.49048Z" />
<path d="M82.0947 1.49048H84.7877V13.7046H92.3647V15.9833H82.0947V1.49048Z" />
</svg>
