<svg width="100%" height="100%" viewBox="0 0 104 20" fill="#FBBA00" xmlns="http://www.w3.org/2000/svg">
<path  d="M4.7595 15.2279C3.57239 14.5906 2.64022 13.6982 1.96301 12.5589C1.2858 11.4196 0.951172 10.1449 0.951172 8.73466C0.951172 7.32446 1.2858 6.04971 1.96301 4.91039C2.64022 3.77108 3.57239 2.87876 4.7595 2.24138C5.94662 1.59604 7.27714 1.27734 8.75905 1.27734C10.241 1.27734 11.5715 1.59604 12.7586 2.24138C13.9457 2.87876 14.8779 3.77109 15.5551 4.90243C16.2323 6.03378 16.5669 7.3165 16.5669 8.73466C16.5669 10.1528 16.2243 11.4355 15.5551 12.5669C14.8779 13.6982 13.9457 14.5826 12.7586 15.2279C11.5715 15.8733 10.241 16.192 8.75905 16.192C7.27714 16.192 5.95459 15.8733 4.7595 15.2279ZM11.3643 13.1804C12.1371 12.7422 12.7427 12.1367 13.1888 11.3559C13.627 10.5751 13.8501 9.70666 13.8501 8.73466C13.8501 7.76266 13.627 6.89424 13.1888 6.11345C12.7427 5.33266 12.1371 4.72715 11.3643 4.28895C10.5915 3.85075 9.72308 3.63565 8.75905 3.63565C7.79501 3.63565 6.91862 3.85075 6.15377 4.28895C5.38095 4.72715 4.77544 5.33266 4.32927 6.11345C3.88311 6.89424 3.66799 7.77063 3.66799 8.73466C3.66799 9.6987 3.88311 10.5751 4.32927 11.3559C4.77544 12.1367 5.38095 12.7422 6.15377 13.1804C6.92659 13.6186 7.79501 13.8337 8.75905 13.8337C9.72308 13.8337 10.5915 13.6186 11.3643 13.1804Z" />
<path d="M28.0638 5.50776C28.9083 5.97783 29.5776 6.63911 30.0636 7.4916C30.5496 8.34409 30.7886 9.33203 30.7886 10.4554C30.7886 11.5788 30.5496 12.5667 30.0636 13.4272C29.5776 14.2876 28.9163 14.9569 28.0638 15.4269C27.2193 15.897 26.2553 16.1281 25.1717 16.1281C23.6818 16.1281 22.5027 15.6341 21.6343 14.6382V20.0001H19.0449V4.92616H21.5068V6.37618C21.937 5.85035 22.4629 5.45996 23.0923 5.19704C23.7217 4.93412 24.4148 4.80664 25.1717 4.80664C26.2473 4.80664 27.2113 5.03769 28.0638 5.50776ZM27.2352 12.9651C27.8487 12.3277 28.1594 11.4911 28.1594 10.4634C28.1594 9.4356 27.8487 8.59108 27.2352 7.9537C26.6217 7.32429 25.841 7.0056 24.8849 7.0056C24.2635 7.0056 23.7057 7.14901 23.2038 7.42786C22.7098 7.71468 22.3115 8.11305 22.0247 8.63888C21.7378 9.16472 21.5944 9.77022 21.5944 10.4634C21.5944 11.1565 21.7378 11.762 22.0247 12.2879C22.3115 12.8137 22.7098 13.22 23.2038 13.4989C23.6978 13.7777 24.2555 13.9211 24.8849 13.9211C25.841 13.9211 26.6217 13.6025 27.2352 12.9651Z" />
<path d="M39.7752 15.3854C39.4725 15.6324 39.106 15.8156 38.6678 15.9431C38.2296 16.0706 37.7754 16.1264 37.2894 16.1264C36.0705 16.1264 35.1383 15.8077 34.469 15.1703C33.8078 14.5409 33.4731 13.6087 33.4731 12.3977V2.47852H36.0625V5.00412H39.0263V7.0756H36.0625V12.334C36.0625 12.8757 36.19 13.2821 36.4529 13.5689C36.7158 13.8477 37.0982 13.9912 37.5922 13.9912C38.1738 13.9912 38.6598 13.8398 39.0422 13.537L39.7672 15.3774L39.7752 15.3854Z" />
<path d="M41.9097 2.66106C41.591 2.36627 41.4316 1.99181 41.4316 1.55362C41.4316 1.11542 41.591 0.740962 41.9097 0.446175C42.2284 0.151387 42.6188 0 43.0888 0C43.5589 0 43.9493 0.143409 44.268 0.422262C44.5867 0.709082 44.746 1.05965 44.746 1.48988C44.746 1.94401 44.5867 2.32644 44.2759 2.63716C43.9652 2.94788 43.5669 3.10722 43.0888 3.10722C42.6108 3.10722 42.2284 2.95585 41.9097 2.66106ZM41.7822 4.93171H44.3715V15.9902H41.7822V4.93171Z" />
<path d="M50.587 3.74286V8.15669H57.5901V10.4353H50.587V15.9885H47.894V1.49609H58.4745V3.75082H50.587V3.74286Z" />
<path d="M62.5134 14.4989C61.398 13.3755 60.8403 11.7662 60.8403 9.66281V1.48047H63.5333V9.55923C63.5333 12.4035 64.7602 13.8217 67.2221 13.8217C69.6839 13.8217 70.887 12.4035 70.887 9.55923V1.48047H73.5401V9.66281C73.5401 11.7582 72.9824 13.3755 71.8749 14.4989C70.7675 15.6223 69.2059 16.188 67.2061 16.188C65.2064 16.188 63.6448 15.6223 62.5294 14.4989H62.5134Z" />
<path d="M90.0489 1.49023V15.9826H87.834L79.8428 6.16699V15.9826H77.1738V1.49023H79.3887L87.3798 11.3058V1.49023H90.0489Z" />
</svg>
