<svg width="96" height="16" viewBox="0 0 96 16" fill="none" xmlns="http://www.w3.org/2000/svg">
<path d="M0.625 15.0001V0.454601H3.25994V12.7912H9.66619V15.0001H0.625Z" fill="#324F7B"/>
<path d="M14.9787 15.2202C14.2874 15.2202 13.6648 15.0971 13.1108 14.8509C12.5616 14.6 12.1259 14.2306 11.804 13.743C11.4867 13.2553 11.3281 12.6539 11.3281 11.939C11.3281 11.3234 11.4418 10.8144 11.669 10.412C11.8963 10.0095 12.2064 9.68756 12.5994 9.44608C12.9924 9.2046 13.4351 9.02231 13.9276 8.8992C14.4247 8.77136 14.9384 8.67903 15.4688 8.62222C16.108 8.55593 16.6264 8.49674 17.0241 8.44466C17.4219 8.38784 17.7107 8.30261 17.8906 8.18898C18.0753 8.07061 18.1676 7.88831 18.1676 7.6421V7.59949C18.1676 7.06445 18.009 6.65015 17.6918 6.35659C17.3745 6.06303 16.9176 5.91625 16.321 5.91625C15.6913 5.91625 15.1918 6.05356 14.8224 6.32818C14.4579 6.6028 14.2116 6.92714 14.0838 7.30119L11.6832 6.96028C11.8726 6.2974 12.1851 5.74343 12.6207 5.29835C13.0563 4.84854 13.589 4.51237 14.2188 4.28983C14.8485 4.06256 15.5445 3.94892 16.3068 3.94892C16.8324 3.94892 17.3556 4.01047 17.8764 4.13358C18.3973 4.25668 18.8731 4.46028 19.304 4.74437C19.7348 5.02373 20.0805 5.40489 20.3409 5.88784C20.6061 6.37079 20.7386 6.97449 20.7386 7.69892V15.0001H18.267V13.5015H18.1818C18.0256 13.8045 17.8054 14.0886 17.5213 14.3537C17.242 14.6142 16.8892 14.8249 16.4631 14.9859C16.0417 15.1421 15.5469 15.2202 14.9787 15.2202ZM15.6463 13.331C16.1624 13.331 16.6098 13.2292 16.9886 13.0256C17.3674 12.8173 17.6586 12.5427 17.8622 12.2018C18.0705 11.8609 18.1747 11.4892 18.1747 11.0867V9.80119C18.0942 9.86748 17.9569 9.92903 17.7628 9.98585C17.5734 10.0427 17.3603 10.0924 17.1236 10.135C16.8868 10.1776 16.6525 10.2155 16.4205 10.2486C16.1884 10.2818 15.9872 10.3102 15.8168 10.3339C15.4332 10.3859 15.09 10.4712 14.7869 10.5895C14.4839 10.7079 14.2448 10.8736 14.0696 11.0867C13.8944 11.295 13.8068 11.5649 13.8068 11.8964C13.8068 12.3698 13.9796 12.7273 14.3253 12.9688C14.6709 13.2103 15.1113 13.331 15.6463 13.331Z" fill="#324F7B"/>
<path d="M31.946 6.97449L29.6023 7.23017C29.536 6.99343 29.42 6.77089 29.2543 6.56256C29.0933 6.35422 28.8755 6.18614 28.6009 6.05829C28.3262 5.93045 27.9901 5.86653 27.5923 5.86653C27.0573 5.86653 26.6075 5.98254 26.2429 6.21454C25.883 6.44655 25.7055 6.74721 25.7102 7.11653C25.7055 7.43377 25.8215 7.69182 26.0582 7.89068C26.2997 8.08954 26.6974 8.2529 27.2514 8.38074L29.1122 8.77847C30.1444 9.001 30.9115 9.35375 31.4134 9.8367C31.92 10.3197 32.1757 10.9518 32.1804 11.733C32.1757 12.4196 31.9744 13.0256 31.5767 13.5512C31.1837 14.072 30.6368 14.4792 29.9361 14.7728C29.2353 15.0663 28.4304 15.2131 27.5213 15.2131C26.1861 15.2131 25.1113 14.9338 24.2969 14.3751C23.4825 13.8116 22.9972 13.028 22.8409 12.0242L25.348 11.7827C25.4616 12.2752 25.7031 12.6468 26.0724 12.8978C26.4418 13.1487 26.9223 13.2742 27.5142 13.2742C28.125 13.2742 28.6151 13.1487 28.9844 12.8978C29.3584 12.6468 29.5455 12.3367 29.5455 11.9674C29.5455 11.6549 29.4247 11.3968 29.1832 11.1932C28.9465 10.9896 28.5772 10.8334 28.0753 10.7245L26.2145 10.3339C25.1681 10.1161 24.3939 9.74911 23.892 9.23301C23.3902 8.71218 23.1416 8.05403 23.1463 7.25858C23.1416 6.58623 23.3239 6.00384 23.6932 5.51142C24.0672 5.01426 24.5857 4.63074 25.2486 4.36085C25.9162 4.08623 26.6856 3.94892 27.5568 3.94892C28.8352 3.94892 29.8414 4.22117 30.5753 4.76568C31.3139 5.31019 31.7708 6.04646 31.946 6.97449Z" fill="#324F7B"/>
<path d="M39.13 15.2131C38.0362 15.2131 37.0916 14.9859 36.2962 14.5313C35.5054 14.072 34.897 13.4234 34.4709 12.5853C34.0447 11.7425 33.8317 10.7505 33.8317 9.60943C33.8317 8.48727 34.0447 7.50242 34.4709 6.65489C34.9018 5.80261 35.5031 5.13973 36.2749 4.66625C37.0466 4.18803 37.9534 3.94892 38.995 3.94892C39.6674 3.94892 40.3018 4.05782 40.8984 4.27562C41.4998 4.48869 42.0301 4.82013 42.4893 5.26994C42.9534 5.71975 43.3179 6.29267 43.5831 6.98869C43.8482 7.67998 43.9808 8.50384 43.9808 9.46028V10.2486H35.0391V8.51568H41.5163C41.5116 8.02326 41.4051 7.58528 41.1967 7.20176C40.9884 6.8135 40.6972 6.50811 40.3232 6.28557C39.9538 6.06303 39.523 5.95176 39.0305 5.95176C38.505 5.95176 38.0433 6.0796 37.6456 6.33528C37.2479 6.58623 36.9377 6.91767 36.7152 7.3296C36.4974 7.7368 36.3861 8.18424 36.3814 8.67193V10.1847C36.3814 10.8192 36.4974 11.3637 36.7294 11.8182C36.9614 12.268 37.2857 12.6137 37.7024 12.8552C38.1191 13.0919 38.6068 13.2103 39.1655 13.2103C39.5395 13.2103 39.8781 13.1582 40.1811 13.054C40.4841 12.9451 40.7469 12.7865 40.9695 12.5782C41.192 12.3698 41.3601 12.1118 41.4737 11.804L43.8743 12.0739C43.7228 12.7084 43.4339 13.2624 43.0078 13.7359C42.5864 14.2046 42.0466 14.5692 41.3885 14.8296C40.7304 15.0853 39.9775 15.2131 39.13 15.2131Z" fill="#324F7B"/>
<path d="M46.1559 15.0001V4.09096H48.6488V5.90915H48.7624C48.9613 5.27941 49.3022 4.79409 49.7852 4.45318C50.2728 4.10754 50.8292 3.93471 51.4542 3.93471C51.5962 3.93471 51.7549 3.94182 51.93 3.95602C52.11 3.96549 52.2591 3.98206 52.3775 4.00574V6.37079C52.2686 6.33292 52.0958 6.29977 51.859 6.27136C51.627 6.23822 51.4021 6.22165 51.1843 6.22165C50.7156 6.22165 50.2942 6.32345 49.9201 6.52704C49.5508 6.72591 49.2596 7.0029 49.0465 7.35801C48.8335 7.71312 48.7269 8.12269 48.7269 8.5867V15.0001H46.1559Z" fill="#324F7B"/>
<path d="M62.104 4.45318C62.0378 3.83292 61.7584 3.34996 61.266 3.00432C60.7783 2.65867 60.1438 2.48585 59.3626 2.48585C58.8133 2.48585 58.3422 2.56871 57.9492 2.73443C57.5562 2.90015 57.2556 3.12506 57.0472 3.40915C56.8389 3.69324 56.7324 4.01757 56.7276 4.38216C56.7276 4.68519 56.7963 4.94797 56.9336 5.17051C57.0756 5.39305 57.2674 5.58244 57.5089 5.73869C57.7504 5.89021 58.0179 6.01805 58.3114 6.12221C58.605 6.22638 58.9009 6.31398 59.1992 6.385L60.5629 6.72591C61.1121 6.85375 61.64 7.02657 62.1467 7.24437C62.658 7.46218 63.1149 7.7368 63.5174 8.06824C63.9246 8.39968 64.2466 8.79977 64.4833 9.26852C64.7201 9.73727 64.8384 10.2865 64.8384 10.9162C64.8384 11.7685 64.6206 12.519 64.185 13.1677C63.7494 13.8116 63.1197 14.3159 62.2958 14.6805C61.4767 15.0403 60.4847 15.2202 59.32 15.2202C58.1883 15.2202 57.2058 15.045 56.3725 14.6947C55.5439 14.3443 54.8952 13.8329 54.4265 13.1606C53.9625 12.4882 53.7115 11.6691 53.6736 10.7032H56.266C56.3039 11.2098 56.4601 11.6312 56.7347 11.9674C57.0094 12.3036 57.3668 12.5545 57.8072 12.7202C58.2523 12.8859 58.7494 12.9688 59.2987 12.9688C59.8716 12.9688 60.3735 12.8836 60.8043 12.7131C61.2399 12.5379 61.5808 12.2965 61.8271 11.9887C62.0733 11.6762 62.1987 11.3116 62.2035 10.8949C62.1987 10.5162 62.0875 10.2037 61.8697 9.95744C61.6519 9.7065 61.3465 9.49816 60.9535 9.33244C60.5652 9.16199 60.1107 9.01047 59.5898 8.8779L57.935 8.45176C56.7371 8.144 55.7901 7.67761 55.0941 7.05261C54.4028 6.42288 54.0572 5.58718 54.0572 4.54551C54.0572 3.6885 54.2892 2.93803 54.7532 2.29409C55.2219 1.65015 55.8588 1.15062 56.6637 0.79551C57.4686 0.435661 58.3801 0.255737 59.3981 0.255737C60.4303 0.255737 61.3346 0.435661 62.1112 0.79551C62.8924 1.15062 63.5056 1.64542 63.9506 2.27988C64.3957 2.90962 64.6254 3.63405 64.6396 4.45318H62.104Z" fill="#324F7B"/>
<path d="M68.821 15.0001H66.0085L71.1293 0.454601H74.3821L79.5099 15.0001H76.6974L72.8125 3.43756H72.6989L68.821 15.0001ZM68.9134 9.29693H76.5838V11.4134H68.9134V9.29693Z" fill="#324F7B"/>
<path d="M84.0607 0.454601V15.0001H81.4258V0.454601H84.0607Z" fill="#324F7B"/>
<path d="M86.9141 15.0001V0.454601H89.549V12.7912H95.9553V15.0001H86.9141Z" fill="#324F7B"/>
</svg>
