<svg width="300" height="24" viewBox="0 0 300 24" fill="none" xmlns="http://www.w3.org/2000/svg">
<path d="M312.885 0.0143677C306.175 0.0143677 300.718 5.39802 300.718 12.0108C300.718 13.3405 300.944 14.6128 301.345 15.8059H297.359C297.767 14.6128 297.986 13.3333 297.986 12.0108C297.986 5.39083 292.529 0.0143677 285.827 0.0143677C279.124 0.0143677 273.66 5.39802 273.66 12.0108C273.66 13.3405 273.886 14.6128 274.287 15.8059H270.302C270.71 14.6128 270.928 13.3333 270.928 12.0108C270.928 5.39083 265.472 0.0143677 258.769 0.0143677C252.067 0.0143677 246.603 5.39802 246.603 12.0108C246.603 13.3405 246.828 14.6128 247.229 15.8059H243.244C243.652 14.6128 243.871 13.3333 243.871 12.0108C243.871 5.39083 238.414 0.0143677 231.711 0.0143677C225.009 0.0143677 219.545 5.39802 219.545 12.0108C219.545 13.3405 219.771 14.6128 220.172 15.8059H216.186C216.594 14.6128 216.813 13.3333 216.813 12.0108C216.813 5.39083 211.356 0.0143677 204.654 0.0143677C197.951 0.0143677 192.487 5.39802 192.487 12.0108C192.487 13.3405 192.713 14.6128 193.114 15.8059H189.129C189.537 14.6128 189.755 13.3333 189.755 12.0108C189.755 5.39083 184.299 0.0143677 177.596 0.0143677C170.894 0.0143677 165.43 5.39802 165.43 12.0108C165.43 13.3405 165.655 14.6128 166.056 15.8059H162.071C162.479 14.6128 162.698 13.3333 162.698 12.0108C162.698 5.39083 157.241 0.0143677 150.538 0.0143677C143.836 0.0143677 138.379 5.39802 138.379 12.0108C138.379 13.3405 138.605 14.6128 139.006 15.8059H135.021C135.429 14.6128 135.647 13.3333 135.647 12.0108C135.647 5.39083 130.191 0.0143677 123.488 0.0143677C116.786 0.0143677 111.322 5.39802 111.322 12.0108C111.322 13.3405 111.547 14.6128 111.948 15.8059H107.963C108.371 14.6128 108.59 13.3333 108.59 12.0108C108.59 5.39083 103.133 0.0143677 96.4303 0.0143677C89.7278 0.0143677 84.2638 5.39802 84.2638 12.0108C84.2638 13.3405 84.4897 14.6128 84.8904 15.8059H80.9053C81.3133 14.6128 81.5318 13.3333 81.5318 12.0108C81.5318 5.39083 76.0751 0.0143677 69.3653 0.0143677C62.6556 0.0143677 57.2061 5.39802 57.2061 12.0108C57.2061 13.3405 57.432 14.6128 57.8327 15.8059H53.8185C54.2264 14.6128 54.445 13.3333 54.445 12.0108C54.445 5.39083 48.9883 0.0143677 42.2858 0.0143677C35.5833 0.0143677 30.1266 5.39802 30.1266 12.0108C30.1266 13.3405 30.3524 14.6128 30.7531 15.8059H26.7389C27.1469 14.6128 27.3655 13.3333 27.3655 12.0108C27.3655 5.39083 21.9087 0.0143677 15.2063 0.0143677C8.50376 0.0143677 3.04706 5.39802 3.04706 12.0108C3.04706 13.3405 3.2729 14.6128 3.67359 15.8059H-0.369755C0.0382233 14.6128 0.256783 13.3333 0.256783 12.0108C0.256783 5.39083 -5.19992 0.0143677 -11.9024 0.0143677C-18.6049 0.0143677 -24.0616 5.39802 -24.0616 12.0108C-24.0616 13.3405 -23.8358 14.6128 -23.4351 15.8059H-41V18.5373H-11.9024C-8.25248 18.5373 -5.28007 15.6047 -5.28007 12.0036C-5.28007 8.40251 -8.25248 5.46989 -11.9024 5.46989C-15.5524 5.46989 -18.5248 8.40251 -18.5248 12.0036C-18.5248 13.4196 -18.0585 14.7278 -17.279 15.7987H-20.4627C-20.9945 14.6415 -21.2932 13.3549 -21.2932 12.0036C-21.2932 6.89307 -17.0823 2.73854 -11.9024 2.73854C-6.72256 2.73854 -2.51164 6.89307 -2.51164 12.0036C-2.51164 17.1141 -6.72256 21.2687 -11.9024 21.2687H-41V24H312.841C319.543 24 325 18.6164 325 11.9964C325 5.37646 319.543 0 312.841 0L312.885 0.0143677ZM-11.8587 8.21563C-9.73868 8.21563 -8.01206 9.91914 -8.01206 12.0108C-8.01206 14.1024 -9.73868 15.8059 -11.8587 15.8059C-13.9787 15.8059 -15.7054 14.1024 -15.7054 12.0108C-15.7054 9.91914 -13.9787 8.21563 -11.8587 8.21563ZM-4.13626 21.2758C-3.1746 20.4924 -2.34408 19.5723 -1.65926 18.5445H15.2573C18.9072 18.5445 21.8796 15.6119 21.8796 12.0108C21.8796 8.4097 18.9072 5.47709 15.2573 5.47709C11.6073 5.47709 8.6349 8.4097 8.6349 12.0108C8.6349 13.4268 9.10116 14.735 9.88069 15.8059H6.697C6.16518 14.6487 5.86648 13.3621 5.86648 12.0108C5.86648 6.90027 10.0774 2.74572 15.2573 2.74572C20.4371 2.74572 24.648 6.90027 24.648 12.0108C24.648 17.1213 20.4371 21.2758 15.2573 21.2758H-4.13626ZM11.4106 12.0108C11.4106 9.91914 13.1372 8.21563 15.2573 8.21563C17.3773 8.21563 19.1039 9.91914 19.1039 12.0108C19.1039 14.1024 17.3773 15.8059 15.2573 15.8059C13.1372 15.8059 11.4106 14.1024 11.4106 12.0108ZM22.9797 21.2758C23.9414 20.4924 24.7719 19.5723 25.4567 18.5445H42.3441C45.994 18.5445 48.9664 15.6119 48.9664 12.0108C48.9664 8.4097 45.994 5.47709 42.3441 5.47709C38.6941 5.47709 35.7217 8.4097 35.7217 12.0108C35.7217 13.4268 36.188 14.735 36.9675 15.8059H33.7838C33.252 14.6487 32.9533 13.3621 32.9533 12.0108C32.9533 6.90027 37.1642 2.74572 42.3441 2.74572C47.524 2.74572 51.7349 6.90027 51.7349 12.0108C51.7349 17.1213 47.524 21.2758 42.3441 21.2758H22.9797ZM38.4974 12.0108C38.4974 9.91914 40.2241 8.21563 42.3441 8.21563C44.4641 8.21563 46.1907 9.91914 46.1907 12.0108C46.1907 14.1024 44.4641 15.8059 42.3441 15.8059C40.2241 15.8059 38.4974 14.1024 38.4974 12.0108ZM50.0665 21.2758C51.0282 20.4924 51.8587 19.5723 52.5435 18.5445H69.4309C73.0809 18.5445 76.0533 15.6119 76.0533 12.0108C76.0533 8.4097 73.0809 5.47709 69.4309 5.47709C65.781 5.47709 62.8086 8.4097 62.8086 12.0108C62.8086 13.4268 63.2748 14.735 64.0543 15.8059H60.8707C60.3388 14.6487 60.0401 13.3621 60.0401 12.0108C60.0401 6.90027 64.251 2.74572 69.4309 2.74572C74.6108 2.74572 78.8217 6.90027 78.8217 12.0108C78.8217 17.1213 74.6108 21.2758 69.4309 21.2758H50.0665ZM65.577 12.0108C65.577 9.91914 67.3036 8.21563 69.4236 8.21563C71.5436 8.21563 73.2703 9.91914 73.2703 12.0108C73.2703 14.1024 71.5436 15.8059 69.4236 15.8059C67.3036 15.8059 65.577 14.1024 65.577 12.0108ZM77.1461 21.2758C78.1077 20.4924 78.9382 19.5723 79.6231 18.5445H96.4813C100.131 18.5445 103.104 15.6119 103.104 12.0108C103.104 8.4097 100.131 5.47709 96.4813 5.47709C92.8314 5.47709 89.859 8.4097 89.859 12.0108C89.859 13.4268 90.3252 14.735 91.1048 15.8059H87.9211C87.3892 14.6487 87.0905 13.3621 87.0905 12.0108C87.0905 6.90027 91.3015 2.74572 96.4813 2.74572C101.661 2.74572 105.872 6.90027 105.872 12.0108C105.872 17.1213 101.661 21.2758 96.4813 21.2758H77.1461ZM92.6274 12.0108C92.6274 9.91914 94.354 8.21563 96.474 8.21563C98.5941 8.21563 100.321 9.91914 100.321 12.0108C100.321 14.1024 98.5941 15.8059 96.474 15.8059C94.354 15.8059 92.6274 14.1024 92.6274 12.0108ZM104.196 21.2758C105.158 20.4924 105.989 19.5723 106.673 18.5445H123.532C127.182 18.5445 130.154 15.6119 130.154 12.0108C130.154 8.4097 127.182 5.47709 123.532 5.47709C119.882 5.47709 116.909 8.4097 116.909 12.0108C116.909 13.4268 117.376 14.735 118.155 15.8059H114.971C114.44 14.6487 114.141 13.3621 114.141 12.0108C114.141 6.90027 118.352 2.74572 123.532 2.74572C128.712 2.74572 132.922 6.90027 132.922 12.0108C132.922 17.1213 128.712 21.2758 123.532 21.2758H104.196ZM119.678 12.0108C119.678 9.91914 121.404 8.21563 123.524 8.21563C125.644 8.21563 127.371 9.91914 127.371 12.0108C127.371 14.1024 125.644 15.8059 123.524 15.8059C121.404 15.8059 119.678 14.1024 119.678 12.0108ZM131.247 21.2758C132.209 20.4924 133.039 19.5723 133.724 18.5445H150.582C154.232 18.5445 157.204 15.6119 157.204 12.0108C157.204 8.4097 154.232 5.47709 150.582 5.47709C146.932 5.47709 143.96 8.4097 143.96 12.0108C143.96 13.4268 144.426 14.735 145.206 15.8059H142.022C141.49 14.6487 141.191 13.3621 141.191 12.0108C141.191 6.90027 145.402 2.74572 150.582 2.74572C155.762 2.74572 159.973 6.90027 159.973 12.0108C159.973 17.1213 155.762 21.2758 150.582 21.2758H131.247ZM146.728 12.0108C146.728 9.91914 148.455 8.21563 150.575 8.21563C152.695 8.21563 154.421 9.91914 154.421 12.0108C154.421 14.1024 152.695 15.8059 150.575 15.8059C148.455 15.8059 146.728 14.1024 146.728 12.0108ZM158.297 21.2758C159.259 20.4924 160.089 19.5723 160.774 18.5445H177.632C181.282 18.5445 184.255 15.6119 184.255 12.0108C184.255 8.4097 181.282 5.47709 177.632 5.47709C173.983 5.47709 171.01 8.4097 171.01 12.0108C171.01 13.4268 171.476 14.735 172.256 15.8059H169.072C168.54 14.6487 168.242 13.3621 168.242 12.0108C168.242 6.90027 172.453 2.74572 177.632 2.74572C182.812 2.74572 187.023 6.90027 187.023 12.0108C187.023 17.1213 182.812 21.2758 177.632 21.2758H158.297ZM173.779 12.0108C173.779 9.91914 175.505 8.21563 177.625 8.21563C179.745 8.21563 181.472 9.91914 181.472 12.0108C181.472 14.1024 179.745 15.8059 177.625 15.8059C175.505 15.8059 173.779 14.1024 173.779 12.0108ZM185.348 21.2758C186.309 20.4924 187.14 19.5723 187.825 18.5445H204.683C208.333 18.5445 211.305 15.6119 211.305 12.0108C211.305 8.4097 208.333 5.47709 204.683 5.47709C201.033 5.47709 198.061 8.4097 198.061 12.0108C198.061 13.4268 198.527 14.735 199.306 15.8059H196.115C195.584 14.6487 195.285 13.3621 195.285 12.0108C195.285 6.90027 199.496 2.74572 204.676 2.74572C209.855 2.74572 214.066 6.90027 214.066 12.0108C214.066 17.1213 209.855 21.2758 204.676 21.2758H185.34H185.348ZM200.829 12.0108C200.829 9.91914 202.556 8.21563 204.676 8.21563C206.796 8.21563 208.522 9.91914 208.522 12.0108C208.522 14.1024 206.796 15.8059 204.676 15.8059C202.556 15.8059 200.829 14.1024 200.829 12.0108ZM212.398 21.2758C213.36 20.4924 214.19 19.5723 214.875 18.5445H231.733C235.383 18.5445 238.356 15.6119 238.356 12.0108C238.356 8.4097 235.383 5.47709 231.733 5.47709C228.083 5.47709 225.111 8.4097 225.111 12.0108C225.111 13.4268 225.577 14.735 226.357 15.8059H223.173C222.641 14.6487 222.343 13.3621 222.343 12.0108C222.343 6.90027 226.553 2.74572 231.733 2.74572C236.913 2.74572 241.124 6.90027 241.124 12.0108C241.124 17.1213 236.913 21.2758 231.733 21.2758H212.398ZM227.879 12.0108C227.879 9.91914 229.606 8.21563 231.726 8.21563C233.846 8.21563 235.573 9.91914 235.573 12.0108C235.573 14.1024 233.846 15.8059 231.726 15.8059C229.606 15.8059 227.879 14.1024 227.879 12.0108ZM239.448 21.2758C240.41 20.4924 241.241 19.5723 241.926 18.5445H258.784C262.434 18.5445 265.406 15.6119 265.406 12.0108C265.406 8.4097 262.434 5.47709 258.784 5.47709C255.134 5.47709 252.161 8.4097 252.161 12.0108C252.161 13.4268 252.628 14.735 253.407 15.8059H250.223C249.692 14.6487 249.393 13.3621 249.393 12.0108C249.393 6.90027 253.604 2.74572 258.784 2.74572C263.964 2.74572 268.174 6.90027 268.174 12.0108C268.174 17.1213 263.964 21.2758 258.784 21.2758H239.448ZM254.93 12.0108C254.93 9.91914 256.656 8.21563 258.776 8.21563C260.896 8.21563 262.623 9.91914 262.623 12.0108C262.623 14.1024 260.896 15.8059 258.776 15.8059C256.656 15.8059 254.93 14.1024 254.93 12.0108ZM266.499 21.2758C267.461 20.4924 268.291 19.5723 268.976 18.5445H285.834C289.484 18.5445 292.456 15.6119 292.456 12.0108C292.456 8.4097 289.484 5.47709 285.834 5.47709C282.184 5.47709 279.212 8.4097 279.212 12.0108C279.212 13.4268 279.678 14.735 280.458 15.8059H277.274C276.742 14.6487 276.443 13.3621 276.443 12.0108C276.443 6.90027 280.654 2.74572 285.834 2.74572C291.014 2.74572 295.225 6.90027 295.225 12.0108C295.225 17.1213 291.014 21.2758 285.834 21.2758H266.499ZM281.98 12.0108C281.98 9.91914 283.707 8.21563 285.827 8.21563C287.947 8.21563 289.673 9.91914 289.673 12.0108C289.673 14.1024 287.947 15.8059 285.827 15.8059C283.707 15.8059 281.98 14.1024 281.98 12.0108ZM312.877 21.2758H293.542C294.504 20.4924 295.334 19.5723 296.019 18.5445H312.877C316.527 18.5445 319.5 15.6119 319.5 12.0108C319.5 8.4097 316.527 5.47709 312.877 5.47709C309.227 5.47709 306.255 8.4097 306.255 12.0108C306.255 13.4268 306.721 14.735 307.501 15.8059H304.317C303.785 14.6487 303.486 13.3621 303.486 12.0108C303.486 6.90027 307.697 2.74572 312.877 2.74572C318.057 2.74572 322.268 6.90027 322.268 12.0108C322.268 17.1213 318.057 21.2758 312.877 21.2758ZM309.031 12.0108C309.031 9.91914 310.757 8.21563 312.877 8.21563C314.997 8.21563 316.724 9.91914 316.724 12.0108C316.724 14.1024 314.997 15.8059 312.877 15.8059C310.757 15.8059 309.031 14.1024 309.031 12.0108Z" fill="white"/>
</svg>
