<svg width="18" height="32" viewBox="0 0 18 32" fill="none" xmlns="http://www.w3.org/2000/svg">
<path d="M14.8292 29.4L3.9625 18.5333C2.67917 17.25 2.67917 15.15 3.9625 13.8667L14.8292 3" stroke="white" stroke-opacity="0.5" stroke-width="5" stroke-miterlimit="10" stroke-linecap="round" stroke-linejoin="round"/>
</svg>
