<svg width="150" height="52" viewBox="0 0 150 52" fill="none" xmlns="http://www.w3.org/2000/svg">
<path d="M87.3387 21.2207C78.8293 21.2207 71.9091 28.1313 71.9091 36.6196C71.9091 38.3265 72.1955 39.9595 72.7037 41.4911H67.6221C68.1395 39.9595 68.426 38.3172 68.426 36.6196C68.426 28.1221 61.5057 21.2207 52.9964 21.2207C51.9708 21.2207 50.973 21.3222 50.0029 21.516C50.8159 19.643 51.2779 17.5763 51.2779 15.3989C51.2779 6.91056 44.3577 0 35.8576 0C27.3574 0 20.4372 6.91056 20.4372 15.3989C20.4372 17.5763 20.8992 19.643 21.7123 21.516C20.7329 21.3222 19.7258 21.2115 18.691 21.2115C10.1817 21.2115 3.26146 28.1221 3.26146 36.6104C3.26146 38.3172 3.54786 39.9503 4.05602 41.4819H0V44.9879H18.691C23.3199 44.9879 27.0895 41.2236 27.0895 36.6011C27.0895 31.9787 23.3199 28.2143 18.691 28.2143C14.0622 28.2143 10.2925 31.9787 10.2925 36.6011C10.2925 38.4187 10.8839 40.0979 11.8725 41.4727H7.8349C7.16043 39.9872 6.78161 38.3357 6.78161 36.6011C6.78161 30.0412 12.1219 24.7083 18.691 24.7083C25.2601 24.7083 30.6004 30.0504 30.6004 36.6011C30.6004 43.1519 25.2601 48.494 18.691 48.494H0.0184684V52H87.3387C95.8388 52 102.768 45.0894 102.768 36.5919C102.768 28.0944 95.8481 21.193 87.3387 21.193V21.2207ZM18.691 31.748C21.3797 31.748 23.5694 33.9347 23.5694 36.6196C23.5694 39.3045 21.3797 41.4911 18.691 41.4911C16.0024 41.4911 13.8127 39.3045 13.8127 36.6196C13.8127 33.9347 16.0024 31.748 18.691 31.748ZM35.8576 3.50602C42.4267 3.50602 47.767 8.83888 47.767 15.3989C47.767 19.0617 46.0947 22.3371 43.4799 24.5238C43.3691 24.616 43.249 24.6991 43.1381 24.7913C41.1239 26.3598 38.6016 27.3009 35.8576 27.3009C29.2884 27.3009 23.9482 21.9588 23.9482 15.4081C23.9482 8.85734 29.2884 3.51526 35.8576 3.51526V3.50602ZM38.3706 41.4911H33.3075C33.8249 39.9595 34.1114 38.3172 34.1114 36.6196C34.1114 34.4422 33.6494 32.3755 32.8363 30.5025C33.8157 30.6962 34.8228 30.807 35.8576 30.807C36.8924 30.807 37.8809 30.7055 38.8511 30.5117C38.038 32.3847 37.5761 34.4514 37.5761 36.6288C37.5761 38.3357 37.8625 39.9688 38.3706 41.5004V41.4911ZM31.6075 44.9972H52.9964C57.6252 44.9972 61.3949 41.2328 61.3949 36.6104C61.3949 31.9879 57.6252 28.2236 52.9964 28.2236C48.3675 28.2236 44.5979 31.9879 44.5979 36.6104C44.5979 38.428 45.1892 40.1072 46.1778 41.4819H42.1402C41.4658 39.9965 41.087 38.3449 41.087 36.6104C41.087 32.9475 42.75 29.6721 45.3648 27.4947C45.4849 27.4024 45.605 27.3194 45.7159 27.2179C47.73 25.6586 50.2523 24.7175 52.9964 24.7175C59.5655 24.7175 64.9058 30.0596 64.9058 36.6104C64.9058 43.1611 59.5655 48.5032 52.9964 48.5032H28.4754C29.695 47.5068 30.7482 46.3165 31.6075 44.9972ZM48.118 36.6104C48.118 33.9255 50.3077 31.7388 52.9964 31.7388C55.685 31.7388 57.8747 33.9255 57.8747 36.6104C57.8747 39.2952 55.685 41.4819 52.9964 41.4819C50.3077 41.4819 48.118 39.2952 48.118 36.6104ZM87.3295 48.5032H62.79C64.0096 47.5068 65.0629 46.3165 65.9221 44.9972H87.3295C91.9583 44.9972 95.728 41.2328 95.728 36.6104C95.728 31.9879 91.9583 28.2236 87.3295 28.2236C82.7006 28.2236 78.931 31.9879 78.931 36.6104C78.931 38.428 79.5223 40.1072 80.5109 41.4819H76.4733C75.7989 39.9965 75.42 38.3449 75.42 36.6104C75.42 30.0504 80.7603 24.7175 87.3295 24.7175C93.8986 24.7175 99.2389 30.0504 99.2389 36.6104C99.2389 43.1703 93.8986 48.5032 87.3295 48.5032ZM82.4512 36.6104C82.4512 33.9255 84.6408 31.7388 87.3295 31.7388C90.0181 31.7388 92.2078 33.9255 92.2078 36.6104C92.2078 39.2952 90.0181 41.4819 87.3295 41.4819C84.6408 41.4819 82.4512 39.2952 82.4512 36.6104Z" fill="white"/>
<path d="M134.58 27.8545C129.951 27.8545 126.182 31.6189 126.182 36.2413C126.182 40.8637 129.951 44.6281 134.58 44.6281C139.209 44.6281 142.979 40.8637 142.979 36.2413C142.979 31.6189 139.209 27.8545 134.58 27.8545ZM134.58 41.1128C131.892 41.1128 129.702 38.9262 129.702 36.2413C129.702 33.5564 131.892 31.3698 134.58 31.3698C137.269 31.3698 139.458 33.5564 139.458 36.2413C139.458 38.9262 137.269 41.1128 134.58 41.1128Z" fill="white"/>
<path d="M134.58 20.8428C126.071 20.8428 119.16 27.7534 119.16 36.2416C119.16 44.7299 126.08 51.6497 134.58 51.6497C143.081 51.6497 150.001 44.7392 150.001 36.2416C150.001 27.7441 143.081 20.8428 134.58 20.8428ZM134.58 48.1345C128.011 48.1345 122.671 42.8016 122.671 36.2416C122.671 29.6817 128.011 24.3488 134.58 24.3488C141.15 24.3488 146.49 29.6817 146.49 36.2416C146.49 42.8016 141.15 48.1345 134.58 48.1345Z" fill="white"/>
<path d="M35.8594 23.7853C40.4883 23.7853 44.2579 20.0209 44.2579 15.3985C44.2579 10.7761 40.4883 7.01172 35.8594 7.01172C31.2306 7.01172 27.4609 10.7761 27.4609 15.3985C27.4609 20.0209 31.2306 23.7853 35.8594 23.7853ZM35.8594 10.527C38.548 10.527 40.7377 12.7136 40.7377 15.3985C40.7377 18.0834 38.548 20.2793 35.8594 20.2793C33.1708 20.2793 30.9811 18.0926 30.9811 15.3985C30.9811 12.7044 33.1708 10.527 35.8594 10.527Z" fill="white"/>
</svg>
